…
library(dplyr)
#> 
#> Attaching package: 'dplyr'
#> The following objects are masked from 'package:stats':
#> 
#>     filter, lag
#> The following objects are masked from 'package:base':
#> 
#>     intersect, setdiff, setequal, union
events_df <- map(results, function(res) {
  pluck(res, "ops", 1)
}) |>
  bind_rows()
events_df
#> # A tibble: 983 × 4
#>    action cid                                                        path  prev 
#>    <chr>  <chr>                                                      <chr> <chr>
#>  1 create bafyreif2jqr4mgs3ab4d7vh64stmt54q2b5p3ay6vglmmmh4fg6qtuah… app.… <NA> 
#>  2 create bafyreiai3qhecipgihgmk3jyvbssso6z7czbxp5frozga2vaypgkhvnq… app.… <NA> 
#>  3 create bafyreiconv43mllioqujwkqsdacjudcleaq7tmzf5x4m6rbkbr3p4w2b… app.… <NA> 
#>  4 create bafyreibklcbwtxmxtwunjfzjnckeerpx2kau5lteyf66sev5pczthkpd… app.… <NA> 
#>  5 create bafyreih2wlvbvqww6udd2oattdriydxprqzhed637qton6te2vrvs4d2… app.… <NA> 
#>  6 create bafyreiczfxgz6qs3y4etx3p2petwlgfvwdsvlfw7dlk4v7otdqbiradd… app.… <NA> 
#>  7 create bafyreigdqhozfzfzeuhn3y2545mugchoadrmw74c2twldoxyywh63wrl… app.… <NA> 
#>  8 delete <NA>                                                       app.… bafy…
#>  9 create bafyreic4h64ytwy6rwjplc6oljawp3zvfdenuh2macinb2kl7g3b6za3… app.… <NA> 
#> 10 create bafyreigk257ywvssiir26ooqlco35suhnzmxwgpwbio23ejfxgfvhy6e… app.… <NA> 
#> # ℹ 973 more rows
```
